TB.vcd
$date
	Thu May 25 01:34:41 2023
$end
$version
	Icarus Verilog
$end
$timescale
	1s
$end
$scope module TB $end
$var wire 1 ! rst $end
$var reg 1 " clk $end
$scope module instthis $end
$var wire 16 # bus1 [15:0] $end
$var wire 16 $ bus3 [15:0] $end
$var wire 1 " clk $end
$var wire 16 % g [15:0] $end
$var wire 1 ! rst $end
$var wire 16 & temp1 [15:0] $end
$var wire 16 ' t7 [15:0] $end
$var wire 16 ( t6 [15:0] $end
$var wire 16 ) t5 [15:0] $end
$var wire 16 * t4 [15:0] $end
$var wire 16 + t3 [15:0] $end
$var wire 16 , t2 [15:0] $end
$var wire 16 - t1 [15:0] $end
$var wire 16 . t0 [15:0] $end
$var wire 3 / switch_choice [2:0] $end
$var wire 4 0 s3 [3:0] $end
$var wire 4 1 s2 [3:0] $end
$var wire 4 2 s1 [3:0] $end
$var wire 4 3 s0 [3:0] $end
$var wire 8 4 reg_en [7:0] $end
$var wire 7 5 math_enables [6:0] $end
$var wire 7 6 hex3 [6:0] $end
$var wire 7 7 hex2 [6:0] $end
$var wire 7 8 hex1 [6:0] $end
$var wire 7 9 hex0 [6:0] $end
$var wire 1 : g_out $end
$var wire 1 ; g_in $end
$var wire 4 < func [3:0] $end
$var wire 1 = data_out $end
$var wire 16 > data [15:0] $end
$var wire 5 ? current_state [4:0] $end
$var wire 23 @ code [22:0] $end
$var wire 8 A bus3_buf_en [7:0] $end
$var wire 8 B bus2_buf_en [7:0] $end
$var wire 8 C bus1_buf_en [7:0] $end
$var wire 5 D address [4:0] $end
$var wire 16 E a_out [15:0] $end
$var wire 1 F a_in $end
$scope module A $end
$var wire 1 " clk $end
$var wire 16 G x [15:0] $end
$var wire 1 F enable $end
$var reg 16 H y [15:0] $end
$upscope $end
$scope module B3T0 $end
$var wire 1 I enable $end
$var wire 16 J a [15:0] $end
$var reg 16 K b [15:0] $end
$upscope $end
$scope module B3T1 $end
$var wire 1 L enable $end
$var wire 16 M a [15:0] $end
$var reg 16 N b [15:0] $end
$upscope $end
$scope module B3T2 $end
$var wire 1 O enable $end
$var wire 16 P a [15:0] $end
$var reg 16 Q b [15:0] $end
$upscope $end
$scope module B3T3 $end
$var wire 1 R enable $end
$var wire 16 S a [15:0] $end
$var reg 16 T b [15:0] $end
$upscope $end
$scope module B3T4 $end
$var wire 1 U enable $end
$var wire 16 V a [15:0] $end
$var reg 16 W b [15:0] $end
$upscope $end
$scope module B3T5 $end
$var wire 1 X enable $end
$var wire 16 Y a [15:0] $end
$var reg 16 Z b [15:0] $end
$upscope $end
$scope module B3T6 $end
$var wire 1 [ enable $end
$var wire 16 \ a [15:0] $end
$var reg 16 ] b [15:0] $end
$upscope $end
$scope module B3T7 $end
$var wire 1 ^ enable $end
$var wire 16 _ a [15:0] $end
$var reg 16 ` b [15:0] $end
$upscope $end
$scope module D $end
$var wire 1 = enable $end
$var wire 16 a a [15:0] $end
$var reg 16 b b [15:0] $end
$upscope $end
$scope module G $end
$var wire 1 " clk $end
$var wire 16 c x [15:0] $end
$var wire 1 ; enable $end
$var reg 16 d y [15:0] $end
$upscope $end
$scope module R0 $end
$var wire 1 " clk $end
$var wire 1 e enable $end
$var wire 16 f x [15:0] $end
$var reg 16 g y [15:0] $end
$upscope $end
$scope module R1 $end
$var wire 1 " clk $end
$var wire 1 h enable $end
$var wire 16 i x [15:0] $end
$var reg 16 j y [15:0] $end
$upscope $end
$scope module R2 $end
$var wire 1 " clk $end
$var wire 1 k enable $end
$var wire 16 l x [15:0] $end
$var reg 16 m y [15:0] $end
$upscope $end
$scope module R3 $end
$var wire 1 " clk $end
$var wire 1 n enable $end
$var wire 16 o x [15:0] $end
$var reg 16 p y [15:0] $end
$upscope $end
$scope module R4 $end
$var wire 1 " clk $end
$var wire 1 q enable $end
$var wire 16 r x [15:0] $end
$var reg 16 s y [15:0] $end
$upscope $end
$scope module R5 $end
$var wire 1 " clk $end
$var wire 1 t enable $end
$var wire 16 u x [15:0] $end
$var reg 16 v y [15:0] $end
$upscope $end
$scope module R6 $end
$var wire 1 " clk $end
$var wire 1 w enable $end
$var wire 16 x x [15:0] $end
$var reg 16 y y [15:0] $end
$upscope $end
$scope module R7 $end
$var wire 1 " clk $end
$var wire 1 z enable $end
$var wire 16 { x [15:0] $end
$var reg 16 | y [15:0] $end
$upscope $end
$scope module T0 $end
$var wire 16 } a [15:0] $end
$var wire 1 ~ enable $end
$var reg 16 !" b [15:0] $end
$upscope $end
$scope module T1 $end
$var wire 16 "" a [15:0] $end
$var wire 1 #" enable $end
$var reg 16 $" b [15:0] $end
$upscope $end
$scope module T2 $end
$var wire 16 %" a [15:0] $end
$var wire 1 &" enable $end
$var reg 16 '" b [15:0] $end
$upscope $end
$scope module T3 $end
$var wire 16 (" a [15:0] $end
$var wire 1 )" enable $end
$var reg 16 *" b [15:0] $end
$upscope $end
$scope module T4 $end
$var wire 16 +" a [15:0] $end
$var wire 1 ," enable $end
$var reg 16 -" b [15:0] $end
$upscope $end
$scope module T5 $end
$var wire 16 ." a [15:0] $end
$var wire 1 /" enable $end
$var reg 16 0" b [15:0] $end
$upscope $end
$scope module T6 $end
$var wire 16 1" a [15:0] $end
$var wire 1 2" enable $end
$var reg 16 3" b [15:0] $end
$upscope $end
$scope module T7 $end
$var wire 16 4" a [15:0] $end
$var wire 1 5" enable $end
$var reg 16 6" b [15:0] $end
$upscope $end
$scope module alu $end
$var wire 1 7" AddSub $end
$var wire 16 8" g [15:0] $end
$var wire 16 9" p [15:0] $end
$var wire 16 :" q [15:0] $end
$var wire 16 ;" xor_out [15:0] $end
$var wire 16 <" sub_out [15:0] $end
$var wire 16 =" or_out [15:0] $end
$var wire 16 >" mod_out [15:0] $end
$var wire 7 ?" math_out [6:0] $end
$var wire 16 @" divide_out [15:0] $end
$var wire 16 A" and_out [15:0] $end
$var wire 16 B" add_out [15:0] $end
$scope module addme $end
$var wire 16 C" a [15:0] $end
$var wire 1 7" addsub $end
$var wire 16 D" b [15:0] $end
$var wire 1 E" t $end
$var wire 16 F" out [15:0] $end
$upscope $end
$scope module addtri $end
$var wire 16 G" a [15:0] $end
$var wire 1 H" enable $end
$var reg 16 I" b [15:0] $end
$upscope $end
$scope module andme $end
$var wire 16 J" a [15:0] $end
$var wire 16 K" b [15:0] $end
$var wire 16 L" g [15:0] $end
$upscope $end
$scope module andtri $end
$var wire 16 M" a [15:0] $end
$var wire 1 N" enable $end
$var reg 16 O" b [15:0] $end
$upscope $end
$scope module divme $end
$var wire 16 P" dividend [15:0] $end
$var wire 16 Q" divisor [15:0] $end
$var wire 16 R" remainder [15:0] $end
$var wire 16 S" quotient [15:0] $end
$upscope $end
$scope module divtri $end
$var wire 16 T" a [15:0] $end
$var wire 1 U" enable $end
$var reg 16 V" b [15:0] $end
$upscope $end
$scope module modtri $end
$var wire 16 W" a [15:0] $end
$var wire 1 X" enable $end
$var reg 16 Y" b [15:0] $end
$upscope $end
$scope module my_xor $end
$var wire 16 Z" a [15:0] $end
$var wire 16 [" b [15:0] $end
$var wire 16 \" g [15:0] $end
$upscope $end
$scope module orme $end
$var wire 16 ]" a [15:0] $end
$var wire 16 ^" b [15:0] $end
$var wire 16 _" g [15:0] $end
$upscope $end
$scope module ortri $end
$var wire 16 `" a [15:0] $end
$var wire 1 a" enable $end
$var reg 16 b" b [15:0] $end
$upscope $end
$scope module subme $end
$var wire 16 c" a [15:0] $end
$var wire 16 d" b [15:0] $end
$var wire 16 e" out [15:0] $end
$upscope $end
$scope module subtri $end
$var wire 16 f" a [15:0] $end
$var wire 1 g" enable $end
$var reg 16 h" b [15:0] $end
$upscope $end
$scope module xortri $end
$var wire 16 i" a [15:0] $end
$var wire 1 j" enable $end
$var reg 16 k" b [15:0] $end
$upscope $end
$upscope $end
$scope module buf3 $end
$var wire 1 " clk $end
$var wire 3 l" reg_num [2:0] $end
$var reg 8 m" reg_enable [7:0] $end
$upscope $end
$scope module cc $end
$var wire 16 n" bus1 [15:0] $end
$var wire 16 o" bus2 [15:0] $end
$var wire 1 " clk $end
$var wire 8 p" temp2 [7:0] $end
$var wire 8 q" temp1 [7:0] $end
$var wire 9 r" temp [8:0] $end
$var wire 3 s" in2 [2:0] $end
$var wire 3 t" in1 [2:0] $end
$var wire 4 u" func [3:0] $end
$var wire 16 v" d [15:0] $end
$var wire 5 w" current_state [4:0] $end
$var wire 23 x" code [22:0] $end
$var reg 1 F a_in $end
$var reg 8 y" bus1_buf_en [7:0] $end
$var reg 8 z" bus2_buf_en [7:0] $end
$var reg 1 = data_out $end
$var reg 1 ; g_in $end
$var reg 1 : g_out $end
$var reg 7 {" math_enables [6:0] $end
$var reg 5 |" next_state [4:0] $end
$var reg 8 }" reg_en [7:0] $end
$scope module i1 $end
$var wire 1 " clk $end
$var wire 3 ~" reg_num [2:0] $end
$var reg 8 !# reg_enable [7:0] $end
$upscope $end
$scope module i2 $end
$var wire 1 " clk $end
$var wire 3 "# reg_num [2:0] $end
$var reg 8 ## reg_enable [7:0] $end
$upscope $end
$upscope $end
$scope module count $end
$var wire 1 " clk $end
$var wire 4 $# func [3:0] $end
$var wire 1 ! rst $end
$var reg 5 %# address [4:0] $end
$var reg 3 &# clocks [2:0] $end
$upscope $end
$scope module g_buf $end
$var wire 16 '# a [15:0] $end
$var wire 1 : enable $end
$var reg 16 (# b [15:0] $end
$upscope $end
$scope module h0 $end
$var wire 4 )# hex [3:0] $end
$var reg 7 *# sevenseg [6:0] $end
$upscope $end
$scope module h1 $end
$var wire 4 +# hex [3:0] $end
$var reg 7 ,# sevenseg [6:0] $end
$upscope $end
$scope module h2 $end
$var wire 4 -# hex [3:0] $end
$var reg 7 .# sevenseg [6:0] $end
$upscope $end
$scope module h3 $end
$var wire 4 /# hex [3:0] $end
$var reg 7 0# sevenseg [6:0] $end
$upscope $end
$scope module rom $end
$var wire 5 1# address [4:0] $end
$var reg 23 2# code [22:0] $end
$var reg 3 3# sw [2:0] $end
$upscope $end
$upscope $end
$upscope $end
$enddefinitions $end
#0
$dumpvars
b1 3#
b10010000000000001001 2#
b1 1#
bx 0#
bx /#
bx .#
bx -#
bx ,#
bx +#
bx *#
bx )#
bz (#
bx '#
b0 &#
b1 %#
b1 $#
b0 ##
b0 "#
b0 !#
b1 ~"
b0 }"
b0 |"
b0 {"
b0 z"
b0 y"
b10010000000000001001 x"
b0 w"
b1001 v"
b1 u"
b1 t"
b0 s"
b100000 r"
b0 q"
b0 p"
bz o"
bz n"
b10000000 m"
b1 l"
bz k"
0j"
bx i"
bz h"
0g"
bx f"
bx e"
bz d"
bx c"
bz b"
0a"
bx `"
bx _"
bz ^"
bx ]"
bx \"
bz ["
bx Z"
bz Y"
0X"
bx W"
bz V"
0U"
bx T"
bx S"
bx R"
bz Q"
bx P"
bz O"
0N"
bx M"
bx L"
bz K"
bx J"
bz I"
0H"
bx G"
bx F"
0E"
bz D"
bx C"
bx B"
bx A"
bx @"
b0 ?"
bx >"
bx ="
bx <"
bx ;"
bz :"
bx 9"
bz 8"
z7"
bz 6"
05"
bx 4"
bz 3"
02"
bx 1"
bz 0"
0/"
bx ."
bz -"
0,"
bx +"
bz *"
0)"
bx ("
bz '"
0&"
bx %"
bz $"
0#"
bx ""
bz !"
0~
bx }
bx |
bz {
0z
bx y
bz x
0w
bx v
bz u
0t
bx s
bz r
0q
bx p
bz o
0n
bx m
bz l
0k
bx j
bz i
0h
bx g
bz f
0e
bx d
bz c
bz b
b1001 a
bz `
bx _
0^
bz ]
bx \
0[
bz Z
bx Y
0X
bz W
bx V
0U
bz T
bx S
0R
bz Q
bx P
0O
bz N
bx M
0L
bx K
bx J
1I
bx H
bz G
0F
bx E
b1 D
b0 C
b0 B
b10000000 A
b10010000000000001001 @
b0 ?
b1001 >
0=
b1 <
0;
0:
bx 9
bx 8
bx 7
bx 6
b0 5
b0 4
bx 3
bx 2
bx 1
bx 0
b1 /
bx .
bx -
bx ,
bx +
bx *
bx )
bx (
bx '
bx &
bz %
bx $
bz #
0"
z!
$end
#20
b0x00x A"
b0x00x L"
b0x00x M"
bx1xx1 ="
bx1xx1 _"
bx1xx1 `"
bx N
bx $
bz K
b1001 #
b1001 G
b1001 f
b1001 i
b1001 l
b1001 o
b1001 r
b1001 u
b1001 x
b1001 {
b1001 :"
b1001 D"
b1001 K"
b1001 Q"
b1001 ["
b1001 ^"
b1001 d"
b1001 b
1L
0I
b1000000 q"
b1000000 !#
b10000000 p"
b10000000 ##
1=
b100001 r"
b1 ?
b1 w"
b1 |"
b1000000 A
b1000000 m"
1"
#40
b11 >
b11 a
b11 v"
b10 t"
b10 ~"
b10100000000000000011 @
b10100000000000000011 x"
b10100000000000000011 2#
bx A"
bx L"
bx M"
bx ="
bx _"
bx `"
bz #
bz G
bz f
bz i
bz l
bz o
bz r
bz u
bz x
bz {
bz :"
bz D"
bz K"
bz Q"
bz ["
bz ^"
bz d"
bz b
b10 /
b10 l"
b10 3#
0=
b100000 r"
b0 ?
b0 w"
b0 |"
b10 D
b10 %#
b10 1#
0"
#60
b11 -
b11 M
b11 j
b11 ""
b0xx A"
b0xx L"
b0xx M"
bx11 ="
bx11 _"
bx11 `"
bx Q
bx $
bz N
1h
b11 #
b11 G
b11 f
b11 i
b11 l
b11 o
b11 r
b11 u
b11 x
b11 {
b11 :"
b11 D"
b11 K"
b11 Q"
b11 ["
b11 ^"
b11 d"
b11 b
1O
0L
b100000 q"
b100000 !#
b1000000 4
b1000000 }"
1=
b100001 r"
b1 ?
b1 w"
b1 |"
b100000 A
b100000 m"
1"
#80
b10100 >
b10100 a
b10100 v"
b11 t"
b11 ~"
b10110000000000010100 @
b10110000000000010100 x"
b10110000000000010100 2#
bx A"
bx L"
bx M"
bx ="
bx _"
bx `"
0h
bz #
bz G
bz f
bz i
bz l
bz o
bz r
bz u
bz x
bz {
bz :"
bz D"
bz K"
bz Q"
bz ["
bz ^"
bz d"
bz b
b11 /
b11 l"
b11 3#
b0 4
b0 }"
0=
b100000 r"
b0 ?
b0 w"
b0 |"
b11 D
b11 %#
b11 1#
0"
#100
b10100 ,
b10100 P
b10100 m
b10100 %"
b0x0x00 A"
b0x0x00 L"
b0x0x00 M"
bx1x1xx ="
bx1x1xx _"
bx1x1xx `"
bx T
bx $
bz Q
1k
b10100 #
b10100 G
b10100 f
b10100 i
b10100 l
b10100 o
b10100 r
b10100 u
b10100 x
b10100 {
b10100 :"
b10100 D"
b10100 K"
b10100 Q"
b10100 ["
b10100 ^"
b10100 d"
b10100 b
1R
0O
b10000 q"
b10000 !#
b100000 4
b100000 }"
1=
b100001 r"
b1 ?
b1 w"
b1 |"
b10000 A
b10000 m"
1"
#120
b1101 >
b1101 a
b1101 v"
b100 t"
b100 ~"
b11000000000000001101 @
b11000000000000001101 x"
b11000000000000001101 2#
bx A"
bx L"
bx M"
bx ="
bx _"
bx `"
0k
bz #
bz G
bz f
bz i
bz l
bz o
bz r
bz u
bz x
bz {
bz :"
bz D"
bz K"
bz Q"
bz ["
bz ^"
bz d"
bz b
b100 /
b100 l"
b100 3#
b0 4
b0 }"
0=
b100000 r"
b0 ?
b0 w"
b0 |"
b100 D
b100 %#
b100 1#
0"
#140
b1101 +
b1101 S
b1101 p
b1101 ("
b0xx0x A"
b0xx0x L"
b0xx0x M"
bx11x1 ="
bx11x1 _"
bx11x1 `"
bx W
bx $
bz T
1n
b1101 #
b1101 G
b1101 f
b1101 i
b1101 l
b1101 o
b1101 r
b1101 u
b1101 x
b1101 {
b1101 :"
b1101 D"
b1101 K"
b1101 Q"
b1101 ["
b1101 ^"
b1101 d"
b1101 b
1U
0R
b1000 q"
b1000 !#
b10000 4
b10000 }"
1=
b100001 r"
b1 ?
b1 w"
b1 |"
b1000 A
b1000 m"
1"
#160
b10101 >
b10101 a
b10101 v"
b101 t"
b101 ~"
b11010000000000010101 @
b11010000000000010101 x"
b11010000000000010101 2#
bx A"
bx L"
bx M"
bx ="
bx _"
bx `"
0n
bz #
bz G
bz f
bz i
bz l
bz o
bz r
bz u
bz x
bz {
bz :"
bz D"
bz K"
bz Q"
bz ["
bz ^"
bz d"
bz b
b101 /
b101 l"
b101 3#
b0 4
b0 }"
0=
b100000 r"
b0 ?
b0 w"
b0 |"
b101 D
b101 %#
b101 1#
0"
#180
b10101 *
b10101 V
b10101 s
b10101 +"
b0x0x0x A"
b0x0x0x L"
b0x0x0x M"
bx1x1x1 ="
bx1x1x1 _"
bx1x1x1 `"
bx Z
bx $
bz W
1q
b10101 #
b10101 G
b10101 f
b10101 i
b10101 l
b10101 o
b10101 r
b10101 u
b10101 x
b10101 {
b10101 :"
b10101 D"
b10101 K"
b10101 Q"
b10101 ["
b10101 ^"
b10101 d"
b10101 b
1X
0U
b100 q"
b100 !#
b1000 4
b1000 }"
1=
b100001 r"
b1 ?
b1 w"
b1 |"
b100 A
b100 m"
1"
#200
b11001 >
b11001 a
b11001 v"
b110 t"
b110 ~"
b11100000000000011001 @
b11100000000000011001 x"
b11100000000000011001 2#
bx A"
bx L"
bx M"
bx ="
bx _"
bx `"
0q
bz #
bz G
bz f
bz i
bz l
bz o
bz r
bz u
bz x
bz {
bz :"
bz D"
bz K"
bz Q"
bz ["
bz ^"
bz d"
bz b
b110 /
b110 l"
b110 3#
b0 4
b0 }"
0=
b100000 r"
b0 ?
b0 w"
b0 |"
b110 D
b110 %#
b110 1#
0"
#220
b11001 )
b11001 Y
b11001 v
b11001 ."
b0xx00x A"
b0xx00x L"
b0xx00x M"
bx11xx1 ="
bx11xx1 _"
bx11xx1 `"
bx ]
bx $
bz Z
1t
b11001 #
b11001 G
b11001 f
b11001 i
b11001 l
b11001 o
b11001 r
b11001 u
b11001 x
b11001 {
b11001 :"
b11001 D"
b11001 K"
b11001 Q"
b11001 ["
b11001 ^"
b11001 d"
b11001 b
1[
0X
b10 q"
b10 !#
b100 4
b100 }"
1=
b100001 r"
b1 ?
b1 w"
b1 |"
b10 A
b10 m"
1"
#240
b11110 >
b11110 a
b11110 v"
b111 t"
b111 ~"
b11110000000000011110 @
b11110000000000011110 x"
b11110000000000011110 2#
bx A"
bx L"
bx M"
bx ="
bx _"
bx `"
0t
bz #
bz G
bz f
bz i
bz l
bz o
bz r
bz u
bz x
bz {
bz :"
bz D"
bz K"
bz Q"
bz ["
bz ^"
bz d"
bz b
b111 /
b111 l"
b111 3#
b0 4
b0 }"
0=
b100000 r"
b0 ?
b0 w"
b0 |"
b111 D
b111 %#
b111 1#
0"
#260
b11110 (
b11110 \
b11110 y
b11110 1"
b0xxxx0 A"
b0xxxx0 L"
b0xxxx0 M"
bx1111x ="
bx1111x _"
bx1111x `"
bx `
bx $
bz ]
1w
b11110 #
b11110 G
b11110 f
b11110 i
b11110 l
b11110 o
b11110 r
b11110 u
b11110 x
b11110 {
b11110 :"
b11110 D"
b11110 K"
b11110 Q"
b11110 ["
b11110 ^"
b11110 d"
b11110 b
1^
0[
b1 q"
b1 !#
b10 4
b10 }"
1=
b100001 r"
b1 ?
b1 w"
b1 |"
b1 A
b1 m"
1"
#280
b10000000000000 >
b10000000000000 a
b10000000000000 v"
b1 s"
b1 "#
b0 t"
b0 ~"
b10 <
b10 u"
b10 $#
b100000010000000000000 @
b100000010000000000000 x"
b100000010000000000000 2#
bx A"
bx L"
bx M"
bx ="
bx _"
bx `"
0w
bz #
bz G
bz f
bz i
bz l
bz o
bz r
bz u
bz x
bz {
bz :"
bz D"
bz K"
bz Q"
bz ["
bz ^"
bz d"
bz b
b0 4
b0 }"
0=
b1000000 r"
b0 ?
b0 w"
b0 |"
b1000 D
b1000 %#
b1000 1#
0"
#300
b111111 6
b111111 0#
b111111 7
b111111 .#
b111111 8
b111111 ,#
b111111 9
b111111 *#
bz 0
bz /#
bz 1
bz -#
bz 2
bz +#
bz 3
bz )#
bz $
bz `
bz '
bz _
bz |
bz 4"
bx #
bx G
bx f
bx i
bx l
bx o
bx r
bx u
bx x
bx {
bx :"
bx D"
bx K"
bx Q"
bx ["
bx ^"
bx d"
bx !"
1~
1z
b10000000 q"
b10000000 !#
b1000000 p"
b1000000 ##
b10000000 C
b10000000 y"
b1 4
b1 }"
b1000010 r"
b10 ?
b10 w"
b10 |"
1"
#320
bx 0
bx /#
bx 1
bx -#
bx 2
bx +#
bx 3
bx )#
bz #
bz G
bz f
bz i
bz l
bz o
bz r
bz u
bz x
bz {
bz :"
bz D"
bz K"
bz Q"
bz ["
bz ^"
bz d"
bz !"
bx $
bx `
0~
bx '
bx _
bx |
bx 4"
b0 C
b0 y"
0z
b0 4
b0 }"
b1000000 r"
b0 ?
b0 w"
b0 |"
b1 &#
0"
#340
bz .
bz J
bz g
bz }
b0xx A"
b0xx L"
b0xx M"
bx11 ="
bx11 _"
bx11 `"
b11 #
b11 G
b11 f
b11 i
b11 l
b11 o
b11 r
b11 u
b11 x
b11 {
b11 :"
b11 D"
b11 K"
b11 Q"
b11 ["
b11 ^"
b11 d"
b11 $"
1#"
1e
b1000000 C
b1000000 y"
b10000000 4
b10000000 }"
b1000010 r"
b10 ?
b10 w"
b10 |"
1"
#360
bx A"
bx L"
bx M"
bx ="
bx _"
bx `"
bz #
bz G
bz f
bz i
bz l
bz o
bz r
bz u
bz x
bz {
bz :"
bz D"
bz K"
bz Q"
bz ["
bz ^"
bz d"
bz $"
0#"
b11 .
b11 J
b11 g
b11 }
b0 C
b0 y"
0e
b0 4
b0 }"
b1000000 r"
b0 ?
b0 w"
b0 |"
b10 &#
0"
#380
bz .
bz J
bz g
bz }
b0xx A"
b0xx L"
b0xx M"
bx11 ="
bx11 _"
bx11 `"
b11 #
b11 G
b11 f
b11 i
b11 l
b11 o
b11 r
b11 u
b11 x
b11 {
b11 :"
b11 D"
b11 K"
b11 Q"
b11 ["
b11 ^"
b11 d"
b11 $"
1#"
1e
b1000000 C
b1000000 y"
b10000000 4
b10000000 }"
b1000010 r"
b10 ?
b10 w"
b10 |"
1"
#400
bx A"
bx L"
bx M"
bx ="
bx _"
bx `"
bz #
bz G
bz f
bz i
bz l
bz o
bz r
bz u
bz x
bz {
bz :"
bz D"
bz K"
bz Q"
bz ["
bz ^"
bz d"
bz $"
0#"
b11 .
b11 J
b11 g
b11 }
b0 C
b0 y"
0e
b0 4
b0 }"
b1000000 r"
b0 ?
b0 w"
b0 |"
b11 &#
0"
#420
bz .
bz J
bz g
bz }
b0xx A"
b0xx L"
b0xx M"
bx11 ="
bx11 _"
bx11 `"
b11 #
b11 G
b11 f
b11 i
b11 l
b11 o
b11 r
b11 u
b11 x
b11 {
b11 :"
b11 D"
b11 K"
b11 Q"
b11 ["
b11 ^"
b11 d"
b11 $"
1#"
1e
b1000000 C
b1000000 y"
b10000000 4
b10000000 }"
b1000010 r"
b10 ?
b10 w"
b10 |"
1"
#440
bx A"
bx L"
bx M"
bx ="
bx _"
bx `"
bz #
bz G
bz f
bz i
bz l
bz o
bz r
bz u
bz x
bz {
bz :"
bz D"
bz K"
bz Q"
bz ["
bz ^"
bz d"
bz $"
0#"
b11 .
b11 J
b11 g
b11 }
b0 C
b0 y"
0e
b0 4
b0 }"
b1000000 r"
b0 ?
b0 w"
b0 |"
b100 &#
0"
#460
bz .
bz J
bz g
bz }
b0xx A"
b0xx L"
b0xx M"
bx11 ="
bx11 _"
bx11 `"
b11 #
b11 G
b11 f
b11 i
b11 l
b11 o
b11 r
b11 u
b11 x
b11 {
b11 :"
b11 D"
b11 K"
b11 Q"
b11 ["
b11 ^"
b11 d"
b11 $"
1#"
1e
b1000000 C
b1000000 y"
b10000000 4
b10000000 }"
b1000010 r"
b10 ?
b10 w"
b10 |"
1"
#480
bx A"
bx L"
bx M"
bx ="
bx _"
bx `"
bz #
bz G
bz f
bz i
bz l
bz o
bz r
bz u
bz x
bz {
bz :"
bz D"
bz K"
bz Q"
bz ["
bz ^"
bz d"
bz $"
b100000000000000 >
b100000000000000 a
b100000000000000 v"
b10 s"
b10 "#
b101 t"
b101 ~"
0#"
b101010100000000000000 @
b101010100000000000000 x"
b101010100000000000000 2#
b11 .
b11 J
b11 g
b11 }
b0 C
b0 y"
0e
b0 4
b0 }"
b1000000 r"
b0 ?
b0 w"
b0 |"
b1001 D
b1001 %#
b1001 1#
b0 &#
0"
#500
bz .
bz J
bz g
bz }
b0xx A"
b0xx L"
b0xx M"
bx11 ="
bx11 _"
bx11 `"
b11 #
b11 G
b11 f
b11 i
b11 l
b11 o
b11 r
b11 u
b11 x
b11 {
b11 :"
b11 D"
b11 K"
b11 Q"
b11 ["
b11 ^"
b11 d"
b11 $"
1#"
1e
b100 q"
b100 !#
b100000 p"
b100000 ##
b1000000 C
b1000000 y"
b10000000 4
b10000000 }"
b1000010 r"
b10 ?
b10 w"
b10 |"
1"
#520
bx A"
bx L"
bx M"
bx ="
bx _"
bx `"
bz #
bz G
bz f
bz i
bz l
bz o
bz r
bz u
bz x
bz {
bz :"
bz D"
bz K"
bz Q"
bz ["
bz ^"
bz d"
bz $"
0#"
b11 .
b11 J
b11 g
b11 }
b0 C
b0 y"
0e
b0 4
b0 }"
b1000000 r"
b0 ?
b0 w"
b0 |"
b1 &#
0"
#540
bz )
bz Y
bz v
bz ."
b0x0x00 A"
b0x0x00 L"
b0x0x00 M"
bx1x1xx ="
bx1x1xx _"
bx1x1xx `"
b10100 #
b10100 G
b10100 f
b10100 i
b10100 l
b10100 o
b10100 r
b10100 u
b10100 x
b10100 {
b10100 :"
b10100 D"
b10100 K"
b10100 Q"
b10100 ["
b10100 ^"
b10100 d"
b10100 '"
1&"
1t
b100000 C
b100000 y"
b100 4
b100 }"
b1000010 r"
b10 ?
b10 w"
b10 |"
1"
#560
bx A"
bx L"
bx M"
bx ="
bx _"
bx `"
bz #
bz G
bz f
bz i
bz l
bz o
bz r
bz u
bz x
bz {
bz :"
bz D"
bz K"
bz Q"
bz ["
bz ^"
bz d"
bz '"
0&"
b10100 )
b10100 Y
b10100 v
b10100 ."
b0 C
b0 y"
0t
b0 4
b0 }"
b1000000 r"
b0 ?
b0 w"
b0 |"
b10 &#
0"
#580
bz )
bz Y
bz v
bz ."
b0x0x00 A"
b0x0x00 L"
b0x0x00 M"
bx1x1xx ="
bx1x1xx _"
bx1x1xx `"
b10100 #
b10100 G
b10100 f
b10100 i
b10100 l
b10100 o
b10100 r
b10100 u
b10100 x
b10100 {
b10100 :"
b10100 D"
b10100 K"
b10100 Q"
b10100 ["
b10100 ^"
b10100 d"
b10100 '"
1&"
1t
b100000 C
b100000 y"
b100 4
b100 }"
b1000010 r"
b10 ?
b10 w"
b10 |"
1"
#600
bx A"
bx L"
bx M"
bx ="
bx _"
bx `"
bz #
bz G
bz f
bz i
bz l
bz o
bz r
bz u
bz x
bz {
bz :"
bz D"
bz K"
bz Q"
bz ["
bz ^"
bz d"
bz '"
0&"
b10100 )
b10100 Y
b10100 v
b10100 ."
b0 C
b0 y"
0t
b0 4
b0 }"
b1000000 r"
b0 ?
b0 w"
b0 |"
b11 &#
0"
#620
bz )
bz Y
bz v
bz ."
b0x0x00 A"
b0x0x00 L"
b0x0x00 M"
bx1x1xx ="
bx1x1xx _"
bx1x1xx `"
b10100 #
b10100 G
b10100 f
b10100 i
b10100 l
b10100 o
b10100 r
b10100 u
b10100 x
b10100 {
b10100 :"
b10100 D"
b10100 K"
b10100 Q"
b10100 ["
b10100 ^"
b10100 d"
b10100 '"
1&"
1t
b100000 C
b100000 y"
b100 4
b100 }"
b1000010 r"
b10 ?
b10 w"
b10 |"
1"
#640
bx A"
bx L"
bx M"
bx ="
bx _"
bx `"
bz #
bz G
bz f
bz i
bz l
bz o
bz r
bz u
bz x
bz {
bz :"
bz D"
bz K"
bz Q"
bz ["
bz ^"
bz d"
bz '"
0&"
b10100 )
b10100 Y
b10100 v
b10100 ."
b0 C
b0 y"
0t
b0 4
b0 }"
b1000000 r"
b0 ?
b0 w"
b0 |"
b100 &#
0"
#660
bz )
bz Y
bz v
bz ."
b0x0x00 A"
b0x0x00 L"
b0x0x00 M"
bx1x1xx ="
bx1x1xx _"
bx1x1xx `"
b10100 #
b10100 G
b10100 f
b10100 i
b10100 l
b10100 o
b10100 r
b10100 u
b10100 x
b10100 {
b10100 :"
b10100 D"
b10100 K"
b10100 Q"
b10100 ["
b10100 ^"
b10100 d"
b10100 '"
1&"
1t
b100000 C
b100000 y"
b100 4
b100 }"
b1000010 r"
b10 ?
b10 w"
b10 |"
1"
#680
bx A"
bx L"
bx M"
bx ="
bx _"
bx `"
bz #
bz G
bz f
bz i
bz l
bz o
bz r
bz u
bz x
bz {
bz :"
bz D"
bz K"
bz Q"
bz ["
bz ^"
bz d"
bz '"
b1000000000000000 >
b1000000000000000 a
b1000000000000000 v"
b100 s"
b100 "#
b10 t"
b10 ~"
0&"
b100101000000000000000 @
b100101000000000000000 x"
b100101000000000000000 2#
b10100 )
b10100 Y
b10100 v
b10100 ."
b0 C
b0 y"
0t
b0 4
b0 }"
b1000000 r"
b0 ?
b0 w"
b0 |"
b1010 D
b1010 %#
b1010 1#
b0 &#
0"
#700
bz )
bz Y
bz v
bz ."
b0x0x00 A"
b0x0x00 L"
b0x0x00 M"
bx1x1xx ="
bx1x1xx _"
bx1x1xx `"
b10100 #
b10100 G
b10100 f
b10100 i
b10100 l
b10100 o
b10100 r
b10100 u
b10100 x
b10100 {
b10100 :"
b10100 D"
b10100 K"
b10100 Q"
b10100 ["
b10100 ^"
b10100 d"
b10100 '"
1&"
1t
b100000 q"
b100000 !#
b1000 p"
b1000 ##
b100000 C
b100000 y"
b100 4
b100 }"
b1000010 r"
b10 ?
b10 w"
b10 |"
1"
